ALX 007
BLR 009
BRD 006
BSN 004
CMN 004
CMY 006
CNL 008
DSM 008
FAN 006
GUL 005
IBK 005
JRI 005
KEN 007
KRN 006
LAR 006
NCL 006
NSH 006
RMK 006
RSD 006
RYU 007
URN 004
VEG 009
Z20 001
Z21 002
Z22 003
Z23 000
Z24 001
ZGF 006