ALX 022
BLR 021
BRD 021
BSN 021
CMN 004
CMY 021
CNL 021
DSM 021
FAN 021
GUL 021
IBK 022
JRI 021
KEN 022
KRN 021
LAR 025
NCL 021
NSH 021
RMK 023
RSD 021
RYU 024
URN 022
VEG 022
Z20 022
Z21 024
Z22 022
Z23 023
Z24 024
Z25 022
Z26 003
Z27 002
Z28 001
Z29 000
ZGF 022