ALX 031
BLR 032
BRD 032
BSN 031
CMN 004
CMY 032
CNL 032
DSM 032
FAN 030
GUL 031
IBK 032
JRI 031
KEN 030
KRN 032
LAR 032
NCL 030
NSH 031
RMK 032
RSD 032
RYU 033
URN 032
VEG 032
Z20 032
Z21 033
Z22 032
Z23 031
Z24 030
Z25 032
Z26 031
Z27 033
Z28 032
Z29 032
Z30 033
Z31 030
Z32 000
Z33 000
Z34 000
Z35 001
ZGF 031