ALX 050
BLR 051
BRD 051
BSN 051
CMN 004
CMY 051
CNL 052
DSM 050
FAN 051
GUL 050
IBK 051
JRI 051
KEN 051
KRN 050
LAR 052
NCL 050
NSH 050
RMK 051
RSD 050
RYU 050
URN 050
VEG 050
Z20 050
Z21 051
Z22 050
Z23 050
Z24 051
Z25 050
Z26 050
Z27 050
Z28 050
Z29 050
Z30 051
Z31 051
Z32 050
Z33 050
Z34 051
Z35 050
Z36 052
Z37 051
Z38 001
Z39 000
ZGF 052